[{"line":1,"elements":[{"line":3,"name":"","description":"","type":"background","keyword":"Background","steps":[{"name":"url someUrlBase","result":{"duration":90900,"status":"passed"},"match":{"location":"karate","arguments":[]},"keyword":"*","line":4,"doc_string":{"content_type":"","value":"15:00:28.342 karate.env system property was:","line":4}},{"name":"configure logPrettyResponse = true","result":{"duration":3697700,"status":"passed"},"match":{"location":"karate","arguments":[]},"keyword":"*","line":5},{"name":"configure logPrettyRequest = true","result":{"duration":35065700,"status":"passed"},"match":{"location":"karate","arguments":[]},"keyword":"*","line":6},{"name":"header Accept = 'application\/json'","result":{"duration":229300,"status":"passed"},"match":{"location":"karate","arguments":[]},"keyword":"*","line":7},{"name":"configure report = { showLog: true, showAllSteps: false }","result":{"duration":216300,"status":"passed"},"match":{"location":"karate","arguments":[]},"keyword":"*","line":8}]},{"line":12,"name":"Get Demo1","description":"","id":"get-demo1","type":"scenario","keyword":"Scenario","steps":[{"name":"path 'users?page=2'","result":{"duration":223900,"status":"passed"},"match":{"location":"karate","arguments":[]},"keyword":"Given","line":13},{"name":"method GET","result":{"duration":1456946000,"status":"passed"},"match":{"location":"karate","arguments":[]},"keyword":"When","line":14,"doc_string":{"content_type":"","value":"15:00:29.501 request:\n1 > GET https:\/\/reqres.in\/api\/users%3Fpage=2\n1 > Accept: application\/json\n1 > Accept-Encoding: gzip,deflate\n1 > Connection: Keep-Alive\n1 > Host: reqres.in\n1 > User-Agent: Apache-HttpClient\/4.5.12 (Java\/1.8.0_301)\n\n15:00:29.904 response time in milliseconds: 393.94\n1 < 200\n1 < Age: 22\n1 < CF-Cache-Status: HIT\n1 < CF-RAY: 6c310d121f6083f5-BLR\n1 < Cache-Control: max-age=14400\n1 < Connection: keep-alive\n1 < Content-Type: application\/json; charset=utf-8\n1 < Date: Sat, 25 Dec 2021 09:30:30 GMT\n1 < Expect-CT: max-age=604800, report-uri=\"https:\/\/report-uri.cloudflare.com\/cdn-cgi\/beacon\/expect-ct\"\n1 < NEL: {\"success_fraction\":0,\"report_to\":\"cf-nel\",\"max_age\":604800}\n1 < Report-To: {\"endpoints\":[{\"url\":\"https:\\\/\\\/a.nel.cloudflare.com\\\/report\\\/v3?s=ShWdm2Fd9vlTWSDAQzHx0kOwTuB82WonscEDF5k9mhwq4JhBdOlohphnDjU1pGNzxduW6rJbwNoWiR1IvQHN3vLDfZ3vyBANSlS1gpiXvgOIqE42e5sPjt%2BSFJA%3D\"}],\"group\":\"cf-nel\",\"max_age\":604800}\n1 < Server: cloudflare\n1 < Transfer-Encoding: chunked\n1 < Vary: Accept-Encoding\n1 < access-control-allow-origin: *\n1 < alt-svc: h3=\":443\"; ma=86400, h3-29=\":443\"; ma=86400, h3-28=\":443\"; ma=86400, h3-27=\":443\"; ma=86400\n1 < etag: W\/\"2c1-N6Rqerxquq2kgQhL51EiSg4x0R8\"\n1 < via: 1.1 vegur\n1 < x-powered-by: Express\n{\n  \"page\": 1,\n  \"per_page\": 6,\n  \"total\": 12,\n  \"total_pages\": 2,\n  \"data\": [\n    {\n      \"id\": 1,\n      \"name\": \"cerulean\",\n      \"year\": 2000,\n      \"color\": \"#98B2D1\",\n      \"pantone_value\": \"15-4020\"\n    },\n    {\n      \"id\": 2,\n      \"name\": \"fuchsia rose\",\n      \"year\": 2001,\n      \"color\": \"#C74375\",\n      \"pantone_value\": \"17-2031\"\n    },\n    {\n      \"id\": 3,\n      \"name\": \"true red\",\n      \"year\": 2002,\n      \"color\": \"#BF1932\",\n      \"pantone_value\": \"19-1664\"\n    },\n    {\n      \"id\": 4,\n      \"name\": \"aqua sky\",\n      \"year\": 2003,\n      \"color\": \"#7BC4C4\",\n      \"pantone_value\": \"14-4811\"\n    },\n    {\n      \"id\": 5,\n      \"name\": \"tigerlily\",\n      \"year\": 2004,\n      \"color\": \"#E2583E\",\n      \"pantone_value\": \"17-1456\"\n    },\n    {\n      \"id\": 6,\n      \"name\": \"blue turquoise\",\n      \"year\": 2005,\n      \"color\": \"#53B0AE\",\n      \"pantone_value\": \"15-5217\"\n    }\n  ],\n  \"support\": {\n    \"url\": \"https:\/\/reqres.in\/#support-heading\",\n    \"text\": \"To keep ReqRes free, contributions towards server costs are appreciated!\"\n  }\n}","line":14}},{"name":"status 200","result":{"duration":24600,"status":"passed"},"match":{"location":"karate","arguments":[]},"keyword":"Then","line":15},{"name":"print response","result":{"duration":2153700,"status":"passed"},"match":{"location":"karate","arguments":[]},"keyword":"And","line":16,"doc_string":{"content_type":"","value":"15:00:29.935 [print] {\n  \"per_page\": 6,\n  \"total\": 12,\n  \"data\": [\n    {\n      \"color\": \"#98B2D1\",\n      \"year\": 2000,\n      \"name\": \"cerulean\",\n      \"id\": 1,\n      \"pantone_value\": \"15-4020\"\n    },\n    {\n      \"color\": \"#C74375\",\n      \"year\": 2001,\n      \"name\": \"fuchsia rose\",\n      \"id\": 2,\n      \"pantone_value\": \"17-2031\"\n    },\n    {\n      \"color\": \"#BF1932\",\n      \"year\": 2002,\n      \"name\": \"true red\",\n      \"id\": 3,\n      \"pantone_value\": \"19-1664\"\n    },\n    {\n      \"color\": \"#7BC4C4\",\n      \"year\": 2003,\n      \"name\": \"aqua sky\",\n      \"id\": 4,\n      \"pantone_value\": \"14-4811\"\n    },\n    {\n      \"color\": \"#E2583E\",\n      \"year\": 2004,\n      \"name\": \"tigerlily\",\n      \"id\": 5,\n      \"pantone_value\": \"17-1456\"\n    },\n    {\n      \"color\": \"#53B0AE\",\n      \"year\": 2005,\n      \"name\": \"blue turquoise\",\n      \"id\": 6,\n      \"pantone_value\": \"15-5217\"\n    }\n  ],\n  \"page\": 1,\n  \"total_pages\": 2,\n  \"support\": {\n    \"text\": \"To keep ReqRes free, contributions towards server costs are appreciated!\",\n    \"url\": \"https:\/\/reqres.in\/#support-heading\"\n  }\n}","line":16}},{"name":"print responseTime","result":{"duration":360100,"status":"passed"},"match":{"location":"karate","arguments":[]},"keyword":"And","line":17,"doc_string":{"content_type":"","value":"15:00:29.935 [print] 394","line":17}},{"name":"print responseStatus","result":{"duration":245400,"status":"passed"},"match":{"location":"karate","arguments":[]},"keyword":"And","line":18,"doc_string":{"content_type":"","value":"15:00:29.936 [print] 200","line":18}},{"name":"print responseHeaders","result":{"duration":2229400,"status":"passed"},"match":{"location":"karate","arguments":[]},"keyword":"And","line":19,"doc_string":{"content_type":"","value":"15:00:29.938 [print] {\n  \"Date\": [\n    \"Sat, 25 Dec 2021 09:30:30 GMT\"\n  ],\n  \"Content-Type\": [\n    \"application\/json; charset=utf-8\"\n  ],\n  \"Transfer-Encoding\": [\n    \"chunked\"\n  ],\n  \"Connection\": [\n    \"keep-alive\"\n  ],\n  \"x-powered-by\": [\n    \"Express\"\n  ],\n  \"access-control-allow-origin\": [\n    \"*\"\n  ],\n  \"etag\": [\n    \"W\/\\\"2c1-N6Rqerxquq2kgQhL51EiSg4x0R8\\\"\"\n  ],\n  \"via\": [\n    \"1.1 vegur\"\n  ],\n  \"Cache-Control\": [\n    \"max-age=14400\"\n  ],\n  \"CF-Cache-Status\": [\n    \"HIT\"\n  ],\n  \"Age\": [\n    \"22\"\n  ],\n  \"Expect-CT\": [\n    \"max-age=604800, report-uri=\\\"https:\/\/report-uri.cloudflare.com\/cdn-cgi\/beacon\/expect-ct\\\"\"\n  ],\n  \"Report-To\": [\n    \"{\\\"endpoints\\\":[{\\\"url\\\":\\\"https:\\\\\/\\\\\/a.nel.cloudflare.com\\\\\/report\\\\\/v3?s=ShWdm2Fd9vlTWSDAQzHx0kOwTuB82WonscEDF5k9mhwq4JhBdOlohphnDjU1pGNzxduW6rJbwNoWiR1IvQHN3vLDfZ3vyBANSlS1gpiXvgOIqE42e5sPjt%2BSFJA%3D\\\"}],\\\"group\\\":\\\"cf-nel\\\",\\\"max_age\\\":604800}\"\n  ],\n  \"NEL\": [\n    \"{\\\"success_fraction\\\":0,\\\"report_to\\\":\\\"cf-nel\\\",\\\"max_age\\\":604800}\"\n  ],\n  \"Vary\": [\n    \"Accept-Encoding\"\n  ],\n  \"Server\": [\n    \"cloudflare\"\n  ],\n  \"CF-RAY\": [\n    \"6c310d121f6083f5-BLR\"\n  ],\n  \"alt-svc\": [\n    \"h3=\\\":443\\\"; ma=86400, h3-29=\\\":443\\\"; ma=86400, h3-28=\\\":443\\\"; ma=86400, h3-27=\\\":443\\\"; ma=86400\"\n  ]\n}","line":19}},{"name":"print responseCookies","result":{"duration":422300,"status":"passed"},"match":{"location":"karate","arguments":[]},"keyword":"And","line":20,"doc_string":{"content_type":"","value":"15:00:29.939 [print]","line":20}}],"tags":[{"name":"@TC1","line":11}]},{"line":3,"name":"","description":"","type":"background","keyword":"Background","steps":[{"name":"url someUrlBase","result":{"duration":27500,"status":"passed"},"match":{"location":"karate","arguments":[]},"keyword":"*","line":4,"doc_string":{"content_type":"","value":"15:00:28.318 karate.env system property was:","line":4}},{"name":"configure logPrettyResponse = true","result":{"duration":8553900,"status":"passed"},"match":{"location":"karate","arguments":[]},"keyword":"*","line":5},{"name":"configure logPrettyRequest = true","result":{"duration":15560700,"status":"passed"},"match":{"location":"karate","arguments":[]},"keyword":"*","line":6},{"name":"header Accept = 'application\/json'","result":{"duration":269600,"status":"passed"},"match":{"location":"karate","arguments":[]},"keyword":"*","line":7},{"name":"configure report = { showLog: true, showAllSteps: false }","result":{"duration":303400,"status":"passed"},"match":{"location":"karate","arguments":[]},"keyword":"*","line":8}]},{"line":23,"name":"Get Demo2","description":"","id":"get-demo2","type":"scenario","keyword":"Scenario","steps":[{"name":"path 'users?page=2'","result":{"duration":5896500,"status":"passed"},"match":{"location":"karate","arguments":[]},"keyword":"Given","line":24},{"name":"method GET","result":{"duration":1458591400,"status":"passed"},"match":{"location":"karate","arguments":[]},"keyword":"When","line":25,"doc_string":{"content_type":"","value":"15:00:29.502 request:\n1 > GET https:\/\/reqres.in\/api\/users%3Fpage=2\n1 > Accept: application\/json\n1 > Accept-Encoding: gzip,deflate\n1 > Connection: Keep-Alive\n1 > Host: reqres.in\n1 > User-Agent: Apache-HttpClient\/4.5.12 (Java\/1.8.0_301)\n\n15:00:29.909 response time in milliseconds: 392.63\n1 < 200\n1 < Age: 22\n1 < CF-Cache-Status: HIT\n1 < CF-RAY: 6c310d121d6a3c12-BLR\n1 < Cache-Control: max-age=14400\n1 < Connection: keep-alive\n1 < Content-Type: application\/json; charset=utf-8\n1 < Date: Sat, 25 Dec 2021 09:30:30 GMT\n1 < Expect-CT: max-age=604800, report-uri=\"https:\/\/report-uri.cloudflare.com\/cdn-cgi\/beacon\/expect-ct\"\n1 < NEL: {\"success_fraction\":0,\"report_to\":\"cf-nel\",\"max_age\":604800}\n1 < Report-To: {\"endpoints\":[{\"url\":\"https:\\\/\\\/a.nel.cloudflare.com\\\/report\\\/v3?s=OTLO2kH%2FKGkA9XlzRgOdMzN%2BYIXdvOA2cYERmUdOJYx4tQYNprPtdFzFGn31%2F%2FxK7Nmp6YBeCpfRmHpm3ijvlDoZ8wuqeq2MngSms4Vt1wo7G9LRUMunccZb5zg%3D\"}],\"group\":\"cf-nel\",\"max_age\":604800}\n1 < Server: cloudflare\n1 < Transfer-Encoding: chunked\n1 < Vary: Accept-Encoding\n1 < access-control-allow-origin: *\n1 < alt-svc: h3=\":443\"; ma=86400, h3-29=\":443\"; ma=86400, h3-28=\":443\"; ma=86400, h3-27=\":443\"; ma=86400\n1 < etag: W\/\"2c1-N6Rqerxquq2kgQhL51EiSg4x0R8\"\n1 < via: 1.1 vegur\n1 < x-powered-by: Express\n{\n  \"page\": 1,\n  \"per_page\": 6,\n  \"total\": 12,\n  \"total_pages\": 2,\n  \"data\": [\n    {\n      \"id\": 1,\n      \"name\": \"cerulean\",\n      \"year\": 2000,\n      \"color\": \"#98B2D1\",\n      \"pantone_value\": \"15-4020\"\n    },\n    {\n      \"id\": 2,\n      \"name\": \"fuchsia rose\",\n      \"year\": 2001,\n      \"color\": \"#C74375\",\n      \"pantone_value\": \"17-2031\"\n    },\n    {\n      \"id\": 3,\n      \"name\": \"true red\",\n      \"year\": 2002,\n      \"color\": \"#BF1932\",\n      \"pantone_value\": \"19-1664\"\n    },\n    {\n      \"id\": 4,\n      \"name\": \"aqua sky\",\n      \"year\": 2003,\n      \"color\": \"#7BC4C4\",\n      \"pantone_value\": \"14-4811\"\n    },\n    {\n      \"id\": 5,\n      \"name\": \"tigerlily\",\n      \"year\": 2004,\n      \"color\": \"#E2583E\",\n      \"pantone_value\": \"17-1456\"\n    },\n    {\n      \"id\": 6,\n      \"name\": \"blue turquoise\",\n      \"year\": 2005,\n      \"color\": \"#53B0AE\",\n      \"pantone_value\": \"15-5217\"\n    }\n  ],\n  \"support\": {\n    \"url\": \"https:\/\/reqres.in\/#support-heading\",\n    \"text\": \"To keep ReqRes free, contributions towards server costs are appreciated!\"\n  }\n}","line":25}},{"name":"status 200","result":{"duration":16600,"status":"passed"},"match":{"location":"karate","arguments":[]},"keyword":"Then","line":26},{"name":"print response","result":{"duration":2109300,"status":"passed"},"match":{"location":"karate","arguments":[]},"keyword":"And","line":27,"doc_string":{"content_type":"","value":"15:00:29.945 [print] {\n  \"per_page\": 6,\n  \"total\": 12,\n  \"data\": [\n    {\n      \"color\": \"#98B2D1\",\n      \"year\": 2000,\n      \"name\": \"cerulean\",\n      \"id\": 1,\n      \"pantone_value\": \"15-4020\"\n    },\n    {\n      \"color\": \"#C74375\",\n      \"year\": 2001,\n      \"name\": \"fuchsia rose\",\n      \"id\": 2,\n      \"pantone_value\": \"17-2031\"\n    },\n    {\n      \"color\": \"#BF1932\",\n      \"year\": 2002,\n      \"name\": \"true red\",\n      \"id\": 3,\n      \"pantone_value\": \"19-1664\"\n    },\n    {\n      \"color\": \"#7BC4C4\",\n      \"year\": 2003,\n      \"name\": \"aqua sky\",\n      \"id\": 4,\n      \"pantone_value\": \"14-4811\"\n    },\n    {\n      \"color\": \"#E2583E\",\n      \"year\": 2004,\n      \"name\": \"tigerlily\",\n      \"id\": 5,\n      \"pantone_value\": \"17-1456\"\n    },\n    {\n      \"color\": \"#53B0AE\",\n      \"year\": 2005,\n      \"name\": \"blue turquoise\",\n      \"id\": 6,\n      \"pantone_value\": \"15-5217\"\n    }\n  ],\n  \"page\": 1,\n  \"total_pages\": 2,\n  \"support\": {\n    \"text\": \"To keep ReqRes free, contributions towards server costs are appreciated!\",\n    \"url\": \"https:\/\/reqres.in\/#support-heading\"\n  }\n}","line":27}}],"tags":[{"name":"@TC2","line":22}]},{"line":3,"name":"","description":"","type":"background","keyword":"Background","steps":[{"name":"url someUrlBase","result":{"duration":27300,"status":"passed"},"match":{"location":"karate","arguments":[]},"keyword":"*","line":4,"doc_string":{"content_type":"","value":"15:00:29.964 karate.env system property was:","line":4}},{"name":"configure logPrettyResponse = true","result":{"duration":350600,"status":"passed"},"match":{"location":"karate","arguments":[]},"keyword":"*","line":5},{"name":"configure logPrettyRequest = true","result":{"duration":187800,"status":"passed"},"match":{"location":"karate","arguments":[]},"keyword":"*","line":6},{"name":"header Accept = 'application\/json'","result":{"duration":168900,"status":"passed"},"match":{"location":"karate","arguments":[]},"keyword":"*","line":7},{"name":"configure report = { showLog: true, showAllSteps: false }","result":{"duration":230900,"status":"passed"},"match":{"location":"karate","arguments":[]},"keyword":"*","line":8}]},{"line":30,"name":"Get Demo3","description":"","id":"get-demo3","type":"scenario","keyword":"Scenario","steps":[{"name":"path '\/users'","result":{"duration":10001300,"status":"passed"},"match":{"location":"karate","arguments":[]},"keyword":"Given","line":31},{"name":"param page = 2","result":{"duration":6219500,"status":"passed"},"match":{"location":"karate","arguments":[]},"keyword":"And","line":32},{"name":"method GET","result":{"duration":53220200,"status":"passed"},"match":{"location":"karate","arguments":[]},"keyword":"When","line":33,"doc_string":{"content_type":"","value":"15:00:29.990 request:\n1 > GET https:\/\/reqres.in\/api\/users?page=2\n1 > Accept: application\/json\n1 > Accept-Encoding: gzip,deflate\n1 > Connection: Keep-Alive\n1 > Host: reqres.in\n1 > User-Agent: Apache-HttpClient\/4.5.12 (Java\/1.8.0_301)\n\n15:00:30.040 response time in milliseconds: 47.74\n1 < 200\n1 < Age: 6094\n1 < CF-Cache-Status: HIT\n1 < CF-RAY: 6c310d13084e3c0c-BLR\n1 < Cache-Control: max-age=14400\n1 < Connection: keep-alive\n1 < Content-Type: application\/json; charset=utf-8\n1 < Date: Sat, 25 Dec 2021 09:30:30 GMT\n1 < Expect-CT: max-age=604800, report-uri=\"https:\/\/report-uri.cloudflare.com\/cdn-cgi\/beacon\/expect-ct\"\n1 < NEL: {\"success_fraction\":0,\"report_to\":\"cf-nel\",\"max_age\":604800}\n1 < Report-To: {\"endpoints\":[{\"url\":\"https:\\\/\\\/a.nel.cloudflare.com\\\/report\\\/v3?s=sGTmszQHAZd7pg%2F2BiAuRCV%2BMjYuV9KF5HYOKxGeJDMlvoPznnD4ZuMgaMTUjG0bO1BcIZXr%2FmftTyI4tOQoY2yHMDj8z3oR2DpFdjN7HlDiht2Sy4H0hh00m1A%3D\"}],\"group\":\"cf-nel\",\"max_age\":604800}\n1 < Server: cloudflare\n1 < Transfer-Encoding: chunked\n1 < Vary: Accept-Encoding\n1 < access-control-allow-origin: *\n1 < alt-svc: h3=\":443\"; ma=86400, h3-29=\":443\"; ma=86400, h3-28=\":443\"; ma=86400, h3-27=\":443\"; ma=86400\n1 < etag: W\/\"406-ut0vzoCuidvyMf8arZpMpJ6ZRDw\"\n1 < via: 1.1 vegur\n1 < x-powered-by: Express\n{\n  \"page\": 2,\n  \"per_page\": 6,\n  \"total\": 12,\n  \"total_pages\": 2,\n  \"data\": [\n    {\n      \"id\": 7,\n      \"email\": \"michael.lawson@reqres.in\",\n      \"first_name\": \"Michael\",\n      \"last_name\": \"Lawson\",\n      \"avatar\": \"https:\/\/reqres.in\/img\/faces\/7-image.jpg\"\n    },\n    {\n      \"id\": 8,\n      \"email\": \"lindsay.ferguson@reqres.in\",\n      \"first_name\": \"Lindsay\",\n      \"last_name\": \"Ferguson\",\n      \"avatar\": \"https:\/\/reqres.in\/img\/faces\/8-image.jpg\"\n    },\n    {\n      \"id\": 9,\n      \"email\": \"tobias.funke@reqres.in\",\n      \"first_name\": \"Tobias\",\n      \"last_name\": \"Funke\",\n      \"avatar\": \"https:\/\/reqres.in\/img\/faces\/9-image.jpg\"\n    },\n    {\n      \"id\": 10,\n      \"email\": \"byron.fields@reqres.in\",\n      \"first_name\": \"Byron\",\n      \"last_name\": \"Fields\",\n      \"avatar\": \"https:\/\/reqres.in\/img\/faces\/10-image.jpg\"\n    },\n    {\n      \"id\": 11,\n      \"email\": \"george.edwards@reqres.in\",\n      \"first_name\": \"George\",\n      \"last_name\": \"Edwards\",\n      \"avatar\": \"https:\/\/reqres.in\/img\/faces\/11-image.jpg\"\n    },\n    {\n      \"id\": 12,\n      \"email\": \"rachel.howell@reqres.in\",\n      \"first_name\": \"Rachel\",\n      \"last_name\": \"Howell\",\n      \"avatar\": \"https:\/\/reqres.in\/img\/faces\/12-image.jpg\"\n    }\n  ],\n  \"support\": {\n    \"url\": \"https:\/\/reqres.in\/#support-heading\",\n    \"text\": \"To keep ReqRes free, contributions towards server costs are appreciated!\"\n  }\n}","line":33}},{"name":"status 200","result":{"duration":16500,"status":"passed"},"match":{"location":"karate","arguments":[]},"keyword":"Then","line":34},{"name":"print response","result":{"duration":1477200,"status":"passed"},"match":{"location":"karate","arguments":[]},"keyword":"And","line":35,"doc_string":{"content_type":"","value":"15:00:30.042 [print] {\n  \"per_page\": 6,\n  \"total\": 12,\n  \"data\": [\n    {\n      \"last_name\": \"Lawson\",\n      \"id\": 7,\n      \"avatar\": \"https:\/\/reqres.in\/img\/faces\/7-image.jpg\",\n      \"first_name\": \"Michael\",\n      \"email\": \"michael.lawson@reqres.in\"\n    },\n    {\n      \"last_name\": \"Ferguson\",\n      \"id\": 8,\n      \"avatar\": \"https:\/\/reqres.in\/img\/faces\/8-image.jpg\",\n      \"first_name\": \"Lindsay\",\n      \"email\": \"lindsay.ferguson@reqres.in\"\n    },\n    {\n      \"last_name\": \"Funke\",\n      \"id\": 9,\n      \"avatar\": \"https:\/\/reqres.in\/img\/faces\/9-image.jpg\",\n      \"first_name\": \"Tobias\",\n      \"email\": \"tobias.funke@reqres.in\"\n    },\n    {\n      \"last_name\": \"Fields\",\n      \"id\": 10,\n      \"avatar\": \"https:\/\/reqres.in\/img\/faces\/10-image.jpg\",\n      \"first_name\": \"Byron\",\n      \"email\": \"byron.fields@reqres.in\"\n    },\n    {\n      \"last_name\": \"Edwards\",\n      \"id\": 11,\n      \"avatar\": \"https:\/\/reqres.in\/img\/faces\/11-image.jpg\",\n      \"first_name\": \"George\",\n      \"email\": \"george.edwards@reqres.in\"\n    },\n    {\n      \"last_name\": \"Howell\",\n      \"id\": 12,\n      \"avatar\": \"https:\/\/reqres.in\/img\/faces\/12-image.jpg\",\n      \"first_name\": \"Rachel\",\n      \"email\": \"rachel.howell@reqres.in\"\n    }\n  ],\n  \"page\": 2,\n  \"total_pages\": 2,\n  \"support\": {\n    \"text\": \"To keep ReqRes free, contributions towards server costs are appreciated!\",\n    \"url\": \"https:\/\/reqres.in\/#support-heading\"\n  }\n}","line":35}}],"tags":[{"name":"@TC3","line":29}]},{"line":3,"name":"","description":"","type":"background","keyword":"Background","steps":[{"name":"url someUrlBase","result":{"duration":25500,"status":"passed"},"match":{"location":"karate","arguments":[]},"keyword":"*","line":4,"doc_string":{"content_type":"","value":"15:00:30.053 karate.env system property was:","line":4}},{"name":"configure logPrettyResponse = true","result":{"duration":246400,"status":"passed"},"match":{"location":"karate","arguments":[]},"keyword":"*","line":5},{"name":"configure logPrettyRequest = true","result":{"duration":155600,"status":"passed"},"match":{"location":"karate","arguments":[]},"keyword":"*","line":6},{"name":"header Accept = 'application\/json'","result":{"duration":162800,"status":"passed"},"match":{"location":"karate","arguments":[]},"keyword":"*","line":7},{"name":"configure report = { showLog: true, showAllSteps: false }","result":{"duration":231000,"status":"passed"},"match":{"location":"karate","arguments":[]},"keyword":"*","line":8}]},{"line":38,"name":"Get Demo4","description":"","id":"get-demo4","type":"scenario","keyword":"Scenario","steps":[{"name":"path '\/users'","result":{"duration":186700,"status":"passed"},"match":{"location":"karate","arguments":[]},"keyword":"Given","line":39},{"name":"param page = 2","result":{"duration":177500,"status":"passed"},"match":{"location":"karate","arguments":[]},"keyword":"And","line":40},{"name":"method GET","result":{"duration":54561400,"status":"passed"},"match":{"location":"karate","arguments":[]},"keyword":"When","line":41,"doc_string":{"content_type":"","value":"15:00:30.059 request:\n1 > GET https:\/\/reqres.in\/api\/users?page=2\n1 > Accept: application\/json\n1 > Accept-Encoding: gzip,deflate\n1 > Connection: Keep-Alive\n1 > Host: reqres.in\n1 > User-Agent: Apache-HttpClient\/4.5.12 (Java\/1.8.0_301)\n\n15:00:30.111 response time in milliseconds: 48.97\n1 < 200\n1 < Age: 6094\n1 < CF-Cache-Status: HIT\n1 < CF-RAY: 6c310d1378823c0c-BLR\n1 < Cache-Control: max-age=14400\n1 < Connection: keep-alive\n1 < Content-Type: application\/json; charset=utf-8\n1 < Date: Sat, 25 Dec 2021 09:30:30 GMT\n1 < Expect-CT: max-age=604800, report-uri=\"https:\/\/report-uri.cloudflare.com\/cdn-cgi\/beacon\/expect-ct\"\n1 < NEL: {\"success_fraction\":0,\"report_to\":\"cf-nel\",\"max_age\":604800}\n1 < Report-To: {\"endpoints\":[{\"url\":\"https:\\\/\\\/a.nel.cloudflare.com\\\/report\\\/v3?s=JHoOqf8Ycv1Jtr5jSwQ5cMMckw0jX2ElKy5j%2BmGYlLslsxGd9DQGA83fmsiz62hEeQOEtU4biiSAj1SgbiilcRWCzqVzngfZ2%2FCOisHJ%2BMs%2FtpfysHYtSdLaUrw%3D\"}],\"group\":\"cf-nel\",\"max_age\":604800}\n1 < Server: cloudflare\n1 < Transfer-Encoding: chunked\n1 < Vary: Accept-Encoding\n1 < access-control-allow-origin: *\n1 < alt-svc: h3=\":443\"; ma=86400, h3-29=\":443\"; ma=86400, h3-28=\":443\"; ma=86400, h3-27=\":443\"; ma=86400\n1 < etag: W\/\"406-ut0vzoCuidvyMf8arZpMpJ6ZRDw\"\n1 < via: 1.1 vegur\n1 < x-powered-by: Express\n{\n  \"page\": 2,\n  \"per_page\": 6,\n  \"total\": 12,\n  \"total_pages\": 2,\n  \"data\": [\n    {\n      \"id\": 7,\n      \"email\": \"michael.lawson@reqres.in\",\n      \"first_name\": \"Michael\",\n      \"last_name\": \"Lawson\",\n      \"avatar\": \"https:\/\/reqres.in\/img\/faces\/7-image.jpg\"\n    },\n    {\n      \"id\": 8,\n      \"email\": \"lindsay.ferguson@reqres.in\",\n      \"first_name\": \"Lindsay\",\n      \"last_name\": \"Ferguson\",\n      \"avatar\": \"https:\/\/reqres.in\/img\/faces\/8-image.jpg\"\n    },\n    {\n      \"id\": 9,\n      \"email\": \"tobias.funke@reqres.in\",\n      \"first_name\": \"Tobias\",\n      \"last_name\": \"Funke\",\n      \"avatar\": \"https:\/\/reqres.in\/img\/faces\/9-image.jpg\"\n    },\n    {\n      \"id\": 10,\n      \"email\": \"byron.fields@reqres.in\",\n      \"first_name\": \"Byron\",\n      \"last_name\": \"Fields\",\n      \"avatar\": \"https:\/\/reqres.in\/img\/faces\/10-image.jpg\"\n    },\n    {\n      \"id\": 11,\n      \"email\": \"george.edwards@reqres.in\",\n      \"first_name\": \"George\",\n      \"last_name\": \"Edwards\",\n      \"avatar\": \"https:\/\/reqres.in\/img\/faces\/11-image.jpg\"\n    },\n    {\n      \"id\": 12,\n      \"email\": \"rachel.howell@reqres.in\",\n      \"first_name\": \"Rachel\",\n      \"last_name\": \"Howell\",\n      \"avatar\": \"https:\/\/reqres.in\/img\/faces\/12-image.jpg\"\n    }\n  ],\n  \"support\": {\n    \"url\": \"https:\/\/reqres.in\/#support-heading\",\n    \"text\": \"To keep ReqRes free, contributions towards server costs are appreciated!\"\n  }\n}","line":41}},{"name":"status 200","result":{"duration":15200,"status":"passed"},"match":{"location":"karate","arguments":[]},"keyword":"Then","line":42},{"name":"print response","result":{"duration":1326300,"status":"passed"},"match":{"location":"karate","arguments":[]},"keyword":"And","line":44,"doc_string":{"content_type":"","value":"15:00:30.113 [print] {\n  \"per_page\": 6,\n  \"total\": 12,\n  \"data\": [\n    {\n      \"last_name\": \"Lawson\",\n      \"id\": 7,\n      \"avatar\": \"https:\/\/reqres.in\/img\/faces\/7-image.jpg\",\n      \"first_name\": \"Michael\",\n      \"email\": \"michael.lawson@reqres.in\"\n    },\n    {\n      \"last_name\": \"Ferguson\",\n      \"id\": 8,\n      \"avatar\": \"https:\/\/reqres.in\/img\/faces\/8-image.jpg\",\n      \"first_name\": \"Lindsay\",\n      \"email\": \"lindsay.ferguson@reqres.in\"\n    },\n    {\n      \"last_name\": \"Funke\",\n      \"id\": 9,\n      \"avatar\": \"https:\/\/reqres.in\/img\/faces\/9-image.jpg\",\n      \"first_name\": \"Tobias\",\n      \"email\": \"tobias.funke@reqres.in\"\n    },\n    {\n      \"last_name\": \"Fields\",\n      \"id\": 10,\n      \"avatar\": \"https:\/\/reqres.in\/img\/faces\/10-image.jpg\",\n      \"first_name\": \"Byron\",\n      \"email\": \"byron.fields@reqres.in\"\n    },\n    {\n      \"last_name\": \"Edwards\",\n      \"id\": 11,\n      \"avatar\": \"https:\/\/reqres.in\/img\/faces\/11-image.jpg\",\n      \"first_name\": \"George\",\n      \"email\": \"george.edwards@reqres.in\"\n    },\n    {\n      \"last_name\": \"Howell\",\n      \"id\": 12,\n      \"avatar\": \"https:\/\/reqres.in\/img\/faces\/12-image.jpg\",\n      \"first_name\": \"Rachel\",\n      \"email\": \"rachel.howell@reqres.in\"\n    }\n  ],\n  \"page\": 2,\n  \"total_pages\": 2,\n  \"support\": {\n    \"text\": \"To keep ReqRes free, contributions towards server costs are appreciated!\",\n    \"url\": \"https:\/\/reqres.in\/#support-heading\"\n  }\n}","line":44}},{"name":"match response.data[0].first_name != null","result":{"duration":12264900,"status":"passed"},"match":{"location":"karate","arguments":[]},"keyword":"And","line":45},{"name":"assert response.data.length == 6","result":{"duration":16633600,"status":"passed"},"match":{"location":"karate","arguments":[]},"keyword":"And","line":46},{"name":"match $.data[1].id == 8","result":{"duration":3741100,"status":"passed"},"match":{"location":"karate","arguments":[]},"keyword":"And","line":47},{"name":"match $.data[3].last_name == 'Fields'","result":{"duration":3312600,"status":"passed"},"match":{"location":"karate","arguments":[]},"keyword":"And","line":48}],"tags":[{"name":"@TC4","line":37}]}],"name":"examples\/users\/get.feature","description":"GET API demo","id":"get-api-demo","keyword":"Feature","uri":"examples\/users\/get.feature"}]